{
  "code": "OK",
  "message": "成功",
  "data": {
    "guestId": null,
    "pages": 8,
    "page": 1,
    "size": 30,
    "total": 212,
    "took": 0,
    "url": null,
    "order": {
      "field": "",
      "desc": true
    },
    "items": [
      {
        "marketplace": "US",
        "keyword": "midea u shaped window air conditioner",
        "keywordCn": "美的 U 型窗式空调",
        "keywordJp": "美的U字型ウィンドウエアコン",
        "departments": [],
        "month": "2026.05",
        "supplement": "N",
        "searches": 98103,
        "purchases": 4709,
        "purchaseRate": 0.048,
        "monopolyClickRate": 0.7625,
        "products": 322,
        "adProducts": 51,
        "supplyDemandRatio": 304.67,
        "avgPrice": 449.97,
        "avgRatings": null,
        "avgRating": 4.4,
        "bidMin": null,
        "bidMax": null,
        "bid": null,
        "cvsShareRate": 0.6487,
        "wordCount": 6,
        "titleDensity": 1,
        "spr": 107,
        "relevancy": null,
        "amazonChoice": true,
        "searchRank": 9465,
        "trends": null,
        "clicks": 39547,
        "impressions": 2447650
      },
      {
        "marketplace": "US",
        "keyword": "midea air conditioner",
        "keywordCn": "美的空调",
        "keywordJp": "美的エアコン",
        "departments": [],
        "month": "2026.05",
        "supplement": "N",
        "searches": 65272,
        "purchases": 855,
        "purchaseRate": 0.0131,
        "monopolyClickRate": 0.495,
        "products": 692,
        "adProducts": 114,
        "supplyDemandRatio": 94.32,
        "avgPrice": 399.99,
        "avgRatings": null,
        "avgRating": 4.4,
        "bidMin": 2.11,
        "bidMax": 4.94,
        "bid": 3.81,
        "cvsShareRate": 0.3628,
        "wordCount": 3,
        "titleDensity": 0,
        "spr": 20,
        "relevancy": null,
        "amazonChoice": true,
        "searchRank": 19125,
        "trends": null,
        "clicks": 30460,
        "impressions": 1614884
      },
      {
        "marketplace": "US",
        "keyword": "midea 8,000 btu u shaped smart inverter window air conditioner - cools 350 sq ft, ultra quiet with o",
        "keywordCn": "美的 8000 BTU U型智能变频窗式空调 - 冷却350平方英尺，超静音",
        "keywordJp": "Midea 8,000 BTU U字型スマートインバーター窓用エアコン - 350平方フィート冷却、超静音",
        "departments": [],
        "month": "2026.05",
        "supplement": "N",
        "searches": 41310,
        "purchases": 430,
        "purchaseRate": 0.0104,
        "monopolyClickRate": 0.9394,
        "products": null,
        "adProducts": null,
        "supplyDemandRatio": 0.0,
        "avgPrice": 349.0,
        "avgRatings": null,
        "avgRating": 4.4,
        "bidMin": null,
        "bidMax": null,
        "bid": null,
        "cvsShareRate": 0.75,
        "wordCount": 19,
        "titleDensity": 0,
        "spr": 10,
        "relevancy": null,
        "amazonChoice": false,
        "searchRank": 34639,
        "trends": null,
        "clicks": 18865,
        "impressions": 1078891
      },
      {
        "marketplace": "US",
        "keyword": "midea 12,000 btu u shaped smart inverter window air conditioner - cools 550 sq ft, ultra quiet with",
        "keywordCn": "美的12,000 BTU U形智能变频窗式空调 - 冷却550平方英尺，超静音",
        "keywordJp": "Midea 12,000 BTU U字型スマートインバーター窓用エアコン - 550平方フィート冷却、超静音",
        "departments": [],
        "month": "2026.05",
        "supplement": "N",
        "searches": 35558,
        "purchases": 384,
        "purchaseRate": 0.0108,
        "monopolyClickRate": 0.4508,
        "products": null,
        "adProducts": null,
        "supplyDemandRatio": 0.0,
        "avgPrice": 399.99,
        "avgRatings": null,
        "avgRating": 4.4,
        "bidMin": null,
        "bidMax": null,
        "bid": null,
        "cvsShareRate": 0.2222,
        "wordCount": 18,
        "titleDensity": null,
        "spr": 9,
        "relevancy": null,
        "amazonChoice": false,
        "searchRank": 42628,
        "trends": null,
        "clicks": 16759,
        "impressions": 1002807
      },
      {
        "marketplace": "US",
        "keyword": "midea 5,000 btu easycool small window air conditioner - cool up to 150 sq. ft. with easy-to-use mech",
        "keywordCn": "美的 5,000 BTU 易冷小型窗式空调 - 最多可冷却150平方英尺，易于使用的机械",
        "keywordJp": "Midea 5,000 BTUイージーコール小型窓用エアコン - 150平方フィートまでの冷却、使いやすいメカ付き",
        "departments": [],
        "month": "2026.05",
        "supplement": "N",
        "searches": 34374,
        "purchases": 158,
        "purchaseRate": 0.0046,
        "monopolyClickRate": 0.3482,
        "products": null,
        "adProducts": null,
        "supplyDemandRatio": 0.0,
        "avgPrice": 399.99,
        "avgRatings": null,
        "avgRating": 4.4,
        "bidMin": null,
        "bidMax": null,
        "bid": null,
        "cvsShareRate": 0.0,
        "wordCount": 18,
        "titleDensity": 0,
        "spr": 4,
        "relevancy": null,
        "amazonChoice": false,
        "searchRank": 44288,
        "trends": null,
        "clicks": 13261,
        "impressions": 890827
      },
      {
        "marketplace": "US",
        "keyword": "midea portable air conditioner",
        "keywordCn": "美的便携式空调",
        "keywordJp": "美的ポータブルエアコン",
        "departments": [],
        "month": "2026.05",
        "supplement": "N",
        "searches": 26528,
        "purchases": 913,
        "purchaseRate": 0.0344,
        "monopolyClickRate": 0.4896,
        "products": 275,
        "adProducts": 168,
        "supplyDemandRatio": 96.47,
        "avgPrice": 299.97,
        "avgRatings": null,
        "avgRating": 4.0,
        "bidMin": 3.55,
        "bidMax": 5.91,
        "bid": 4.73,
        "cvsShareRate": 0.3148,
        "wordCount": 4,
        "titleDensity": 0,
        "spr": 21,
        "relevancy": null,
        "amazonChoice": true,
        "searchRank": 60636,
        "trends": null,
        "clicks": 11644,
        "impressions": 615844
      },
      {
        "marketplace": "US",
        "keyword": "midea 12000 btu air conditioner",
        "keywordCn": "美的 12000 btu 空调",
        "keywordJp": "美的12000btuエアコン",
        "departments": [
          {
            "code": "hi",
            "label": "Tools & Home Improvement"
          }
        ],
        "month": "2026.05",
        "supplement": "N",
        "searches": 19414,
        "purchases": 190,
        "purchaseRate": 0.0098,
        "monopolyClickRate": 0.674,
        "products": 152,
        "adProducts": 34,
        "supplyDemandRatio": 127.72,
        "avgPrice": 479.99,
        "avgRatings": null,
        "avgRating": 4.4,
        "bidMin": null,
        "bidMax": null,
        "bid": null,
        "cvsShareRate": 0.7392,
        "wordCount": 5,
        "titleDensity": 0,
        "spr": 5,
        "relevancy": null,
        "amazonChoice": true,
        "searchRank": 87570,
        "trends": null,
        "clicks": 7788,
        "impressions": 493474
      },
      {
        "marketplace": "US",
        "keyword": "midea duo portable air conditioner",
        "keywordCn": "美的双便携式空调",
        "keywordJp": "美的デュオポータブルエアコン",
        "departments": [
          {
            "code": "Automotive",
            "label": "Automotive Parts & Accessories"
          }
        ],
        "month": "2026.05",
        "supplement": "N",
        "searches": 9890,
        "purchases": 72,
        "purchaseRate": 0.0073,
        "monopolyClickRate": 0.6607,
        "products": 140,
        "adProducts": 13,
        "supplyDemandRatio": 70.64,
        "avgPrice": 519.95,
        "avgRatings": null,
        "avgRating": 4.0,
        "bidMin": null,
        "bidMax": null,
        "bid": null,
        "cvsShareRate": 0.3939,
        "wordCount": 5,
        "titleDensity": 0,
        "spr": 2,
        "relevancy": null,
        "amazonChoice": true,
        "searchRank": 162541,
        "trends": null,
        "clicks": 4608,
        "impressions": 285792
      },
      {
        "marketplace": "US",
        "keyword": "midea window air conditioner",
        "keywordCn": "美的窗式空调",
        "keywordJp": "美的ウィンドウエアコン",
        "departments": [],
        "month": "2026.05",
        "supplement": "N",
        "searches": 8319,
        "purchases": 87,
        "purchaseRate": 0.0104,
        "monopolyClickRate": 0.6271,
        "products": 581,
        "adProducts": 36,
        "supplyDemandRatio": 14.32,
        "avgPrice": 399.99,
        "avgRatings": null,
        "avgRating": 4.4,
        "bidMin": 2.9,
        "bidMax": 4.83,
        "bid": 3.86,
        "cvsShareRate": 0.5682,
        "wordCount": 4,
        "titleDensity": 0,
        "spr": 2,
        "relevancy": null,
        "amazonChoice": true,
        "searchRank": 192060,
        "trends": null,
        "clicks": 3393,
        "impressions": 240747
      },
      {
        "marketplace": "US",
        "keyword": "midea 8000 btu air conditioner",
        "keywordCn": "美的 8000 btu 空调",
        "keywordJp": "美的8000btuエアコン",
        "departments": [],
        "month": "2026.05",
        "supplement": "N",
        "searches": 4911,
        "purchases": 29,
        "purchaseRate": 0.006,
        "monopolyClickRate": 0.663,
        "products": 1419,
        "adProducts": 26,
        "supplyDemandRatio": 3.46,
        "avgPrice": 349.0,
        "avgRatings": null,
        "avgRating": 4.3,
        "bidMin": 2.6,
        "bidMax": 4.33,
        "bid": 3.46,
        "cvsShareRate": 0.5862,
        "wordCount": 5,
        "titleDensity": 0,
        "spr": 1,
        "relevancy": null,
        "amazonChoice": true,
        "searchRank": 312814,
        "trends": null,
        "clicks": 2391,
        "impressions": 129349
      },
      {
        "marketplace": "US",
        "keyword": "midea u-shaped air conditioner",
        "keywordCn": "美的U型空调",
        "keywordJp": "美的U字型エアコン",
        "departments": [],
        "month": "2026.05",
        "supplement": "N",
        "searches": 4301,
        "purchases": 13,
        "purchaseRate": 0.0031,
        "monopolyClickRate": 0.7878,
        "products": 357,
        "adProducts": 26,
        "supplyDemandRatio": 12.05,
        "avgPrice": 399.99,
        "avgRatings": null,
        "avgRating": 4.3,
        "bidMin": 2.83,
        "bidMax": 4.71,
        "bid": 3.77,
        "cvsShareRate": 0.4,
        "wordCount": 4,
        "titleDensity": 0,
        "spr": 1,
        "relevancy": null,
        "amazonChoice": true,
        "searchRank": 346489,
        "trends": null,
        "clicks": 2036,
        "impressions": 109565
      },
      {
        "marketplace": "US",
        "keyword": "midea 5000 btu air conditioner",
        "keywordCn": "美的 5000 btu 空调",
        "keywordJp": "美的5000btuエアコン",
        "departments": [],
        "month": "2026.05",
        "supplement": "N",
        "searches": 4181,
        "purchases": 20,
        "purchaseRate": 0.0048,
        "monopolyClickRate": 0.8011,
        "products": 190,
        "adProducts": 31,
        "supplyDemandRatio": 22.01,
        "avgPrice": 179.99,
        "avgRatings": null,
        "avgRating": 4.4,
        "bidMin": 1.22,
        "bidMax": 2.03,
        "bid": 1.62,
        "cvsShareRate": 0.5,
        "wordCount": 5,
        "titleDensity": 0,
        "spr": 1,
        "relevancy": null,
        "amazonChoice": true,
        "searchRank": 362473,
        "trends": null,
        "clicks": 1695,
        "impressions": 116385
      },
      {
        "marketplace": "US",
        "keyword": "midea 6000 btu air conditioner",
        "keywordCn": "美的 6000 btu 空调",
        "keywordJp": "美的6000btuエアコン",
        "departments": [],
        "month": "2026.05",
        "supplement": "N",
        "searches": 3650,
        "purchases": 37,
        "purchaseRate": 0.0102,
        "monopolyClickRate": 0.7696,
        "products": 105,
        "adProducts": 22,
        "supplyDemandRatio": 34.76,
        "avgPrice": 239.99,
        "avgRatings": null,
        "avgRating": 4.3,
        "bidMin": 2.22,
        "bidMax": 3.7,
        "bid": 2.96,
        "cvsShareRate": 0.875,
        "wordCount": 5,
        "titleDensity": 0,
        "spr": 1,
        "relevancy": null,
        "amazonChoice": true,
        "searchRank": 392360,
        "trends": null,
        "clicks": 1807,
        "impressions": 103720
      },
      {
        "marketplace": "US",
        "keyword": "midea air-conditioner",
        "keywordCn": "美的空调",
        "keywordJp": "Midea エアコン",
        "departments": [
          {
            "code": "Shoes",
            "label": "Fashion > Shoes"
          }
        ],
        "month": "2026.05",
        "supplement": "N",
        "searches": 3299,
        "purchases": 24,
        "purchaseRate": 0.0073,
        "monopolyClickRate": 0.5416,
        "products": 704,
        "adProducts": 21,
        "supplyDemandRatio": 4.69,
        "avgPrice": 399.99,
        "avgRatings": null,
        "avgRating": 4.4,
        "bidMin": 1.9,
        "bidMax": 4.43,
        "bid": 3.42,
        "cvsShareRate": 0.6,
        "wordCount": 2,
        "titleDensity": 0,
        "spr": 1,
        "relevancy": null,
        "amazonChoice": true,
        "searchRank": 441450,
        "trends": null,
        "clicks": 1485,
        "impressions": 79337
      },
      {
        "marketplace": "US",
        "keyword": "midea u shaped air conditioner",
        "keywordCn": "美的U型空调",
        "keywordJp": "美的U字型エアコン",
        "departments": [],
        "month": "2026.05",
        "supplement": "N",
        "searches": 3064,
        "purchases": 15,
        "purchaseRate": 0.0049,
        "monopolyClickRate": 0.7543,
        "products": 151,
        "adProducts": 38,
        "supplyDemandRatio": 20.29,
        "avgPrice": 399.99,
        "avgRatings": null,
        "avgRating": 4.4,
        "bidMin": 2.83,
        "bidMax": 4.71,
        "bid": 3.77,
        "cvsShareRate": 0.7857,
        "wordCount": 5,
        "titleDensity": 0,
        "spr": 1,
        "relevancy": null,
        "amazonChoice": true,
        "searchRank": 464976,
        "trends": null,
        "clicks": 1365,
        "impressions": 75706
      },
      {
        "marketplace": "US",
        "keyword": "midea air conditioner filter",
        "keywordCn": "美的空调滤网",
        "keywordJp": "Midea エアコンフィルター",
        "departments": [
          {
            "code": "hi",
            "label": "Tools & Home Improvement"
          }
        ],
        "month": "2026.05",
        "supplement": "N",
        "searches": 2806,
        "purchases": 11,
        "purchaseRate": 0.004,
        "monopolyClickRate": 0.6098,
        "products": 109,
        "adProducts": 12,
        "supplyDemandRatio": 25.74,
        "avgPrice": 14.98,
        "avgRatings": null,
        "avgRating": 4.5,
        "bidMin": 0.46,
        "bidMax": 0.79,
        "bid": 0.55,
        "cvsShareRate": 0.5263,
        "wordCount": 4,
        "titleDensity": 1,
        "spr": 1,
        "relevancy": null,
        "amazonChoice": true,
        "searchRank": 531978,
        "trends": null,
        "clicks": 1141,
        "impressions": 66322
      },
      {
        "marketplace": "US",
        "keyword": "midea 10000 btu air conditioner",
        "keywordCn": "美的 10000 btu 空调",
        "keywordJp": "美的10000btuエアコン",
        "departments": [],
        "month": "2026.05",
        "supplement": "N",
        "searches": 2372,
        "purchases": 13,
        "purchaseRate": 0.0054,
        "monopolyClickRate": 0.4516,
        "products": 527,
        "adProducts": 10,
        "supplyDemandRatio": 4.5,
        "avgPrice": 399.99,
        "avgRatings": null,
        "avgRating": 4.3,
        "bidMin": null,
        "bidMax": null,
        "bid": null,
        "cvsShareRate": 0.4762,
        "wordCount": 5,
        "titleDensity": 0,
        "spr": 1,
        "relevancy": null,
        "amazonChoice": true,
        "searchRank": 603081,
        "trends": null,
        "clicks": 1139,
        "impressions": 56550
      },
      {
        "marketplace": "US",
        "keyword": "air conditioner midea",
        "keywordCn": "空调美的",
        "keywordJp": "エアコン美的",
        "departments": [],
        "month": "2026.05",
        "supplement": "N",
        "searches": 2242,
        "purchases": 18,
        "purchaseRate": 0.008,
        "monopolyClickRate": 0.3987,
        "products": 545,
        "adProducts": 28,
        "supplyDemandRatio": 4.11,
        "avgPrice": 179.99,
        "avgRatings": null,
        "avgRating": 4.4,
        "bidMin": 2.41,
        "bidMax": 4.01,
        "bid": 3.21,
        "cvsShareRate": 0.2,
        "wordCount": 3,
        "titleDensity": 0,
        "spr": 1,
        "relevancy": null,
        "amazonChoice": true,
        "searchRank": 629597,
        "trends": null,
        "clicks": 937,
        "impressions": 56630
      },
      {
        "marketplace": "US",
        "keyword": "midea inverter air conditioner",
        "keywordCn": "美的变频空调",
        "keywordJp": "美的インバーターエアコン",
        "departments": [],
        "month": "2026.05",
        "supplement": "N",
        "searches": 2238,
        "purchases": 23,
        "purchaseRate": 0.0103,
        "monopolyClickRate": 0.4046,
        "products": 129,
        "adProducts": 20,
        "supplyDemandRatio": 17.35,
        "avgPrice": 399.99,
        "avgRatings": null,
        "avgRating": 4.4,
        "bidMin": 1.58,
        "bidMax": 2.64,
        "bid": 2.11,
        "cvsShareRate": 0.5715,
        "wordCount": 4,
        "titleDensity": 0,
        "spr": 1,
        "relevancy": null,
        "amazonChoice": true,
        "searchRank": 638021,
        "trends": null,
        "clicks": 934,
        "impressions": 59136
      },
      {
        "marketplace": "US",
        "keyword": "midea duo smart portable inverter air conditioner",
        "keywordCn": "美的双智能便携变频空调",
        "keywordJp": "Midea Duo スマート ポータブル インバーター エアコン",
        "departments": [],
        "month": "2026.06",
        "supplement": "N",
        "searches": 1903,
        "purchases": 8,
        "purchaseRate": 0.004,
        "monopolyClickRate": 0.5965,
        "products": 587,
        "adProducts": null,
        "supplyDemandRatio": 3.24,
        "avgPrice": 589.97,
        "avgRatings": null,
        "avgRating": 4.0,
        "bidMin": null,
        "bidMax": null,
        "bid": null,
        "cvsShareRate": 0.0,
        "wordCount": 7,
        "titleDensity": 0,
        "spr": 1,
        "relevancy": null,
        "amazonChoice": true,
        "searchRank": 748383,
        "trends": null,
        "clicks": 912,
        "impressions": 53451
      },
      {
        "marketplace": "US",
        "keyword": "midea 12000 btu u-shaped smart inverter window air conditioner",
        "keywordCn": "Midea 12000 Btu U型智能变频窗式空调器",
        "keywordJp": "MIDEA 12000 BTU U字型スマートインバーターウィンドウエアコン",
        "departments": [],
        "month": "2026.05",
        "supplement": "N",
        "searches": 1882,
        "purchases": 9,
        "purchaseRate": 0.0046,
        "monopolyClickRate": 0.8068,
        "products": 405,
        "adProducts": 20,
        "supplyDemandRatio": 4.65,
        "avgPrice": 479.99,
        "avgRatings": null,
        "avgRating": 4.4,
        "bidMin": null,
        "bidMax": null,
        "bid": null,
        "cvsShareRate": 0.6875,
        "wordCount": 9,
        "titleDensity": 0,
        "spr": 1,
        "relevancy": null,
        "amazonChoice": true,
        "searchRank": 756754,
        "trends": null,
        "clicks": 727,
        "impressions": 43448
      },
      {
        "marketplace": "US",
        "keyword": "midea air conditioner 12000 btu",
        "keywordCn": "美的空调 12000 btu",
        "keywordJp": "美的エアコン12000btu",
        "departments": [],
        "month": "2026.05",
        "supplement": "N",
        "searches": 1864,
        "purchases": 7,
        "purchaseRate": 0.0038,
        "monopolyClickRate": 0.6764,
        "products": 114,
        "adProducts": 16,
        "supplyDemandRatio": 16.35,
        "avgPrice": 495.0,
        "avgRatings": null,
        "avgRating": 4.5,
        "bidMin": null,
        "bidMax": null,
        "bid": null,
        "cvsShareRate": 0.5,
        "wordCount": 5,
        "titleDensity": 0,
        "spr": 1,
        "relevancy": null,
        "amazonChoice": true,
        "searchRank": 777674,
        "trends": null,
        "clicks": 769,
        "impressions": 44850
      },
      {
        "marketplace": "US",
        "keyword": "midea portable air conditioner parts",
        "keywordCn": "midea 便携式空调配件",
        "keywordJp": "ミーダ ポータブルエアコン部品",
        "departments": [
          {
            "code": "Automotive",
            "label": "Automotive Parts & Accessories"
          }
        ],
        "month": "2026.05",
        "supplement": "N",
        "searches": 1737,
        "purchases": 15,
        "purchaseRate": 0.0086,
        "monopolyClickRate": 0.2759,
        "products": 338,
        "adProducts": 10,
        "supplyDemandRatio": 5.14,
        "avgPrice": 29.99,
        "avgRatings": null,
        "avgRating": 4.3,
        "bidMin": null,
        "bidMax": null,
        "bid": null,
        "cvsShareRate": 0.1,
        "wordCount": 5,
        "titleDensity": 0,
        "spr": 1,
        "relevancy": null,
        "amazonChoice": true,
        "searchRank": 805894,
        "trends": null,
        "clicks": 706,
        "impressions": 50301
      },
      {
        "marketplace": "US",
        "keyword": "midea 14000 btu air conditioner",
        "keywordCn": "美的 14000 btu 空调",
        "keywordJp": "midea14000btuエアコン",
        "departments": [],
        "month": "2026.05",
        "supplement": "N",
        "searches": 1576,
        "purchases": 10,
        "purchaseRate": 0.0065,
        "monopolyClickRate": 0.6667,
        "products": 122,
        "adProducts": 8,
        "supplyDemandRatio": 12.92,
        "avgPrice": 509.99,
        "avgRatings": null,
        "avgRating": 4.0,
        "bidMin": null,
        "bidMax": null,
        "bid": null,
        "cvsShareRate": 0.375,
        "wordCount": 5,
        "titleDensity": 0,
        "spr": 1,
        "relevancy": null,
        "amazonChoice": true,
        "searchRank": 960141,
        "trends": null,
        "clicks": 615,
        "impressions": 46831
      },
      {
        "marketplace": "US",
        "keyword": "midea 12000 btu portable air conditioner",
        "keywordCn": "美的12000 BTU便携式空调",
        "keywordJp": "ミーダ 12000 BTU ポータブル エアコンディショナー",
        "departments": [],
        "month": "2026.05",
        "supplement": "N",
        "searches": 1564,
        "purchases": 10,
        "purchaseRate": 0.0062,
        "monopolyClickRate": 0.6517,
        "products": 788,
        "adProducts": 5,
        "supplyDemandRatio": 1.98,
        "avgPrice": 399.99,
        "avgRatings": null,
        "avgRating": 4.0,
        "bidMin": null,
        "bidMax": null,
        "bid": null,
        "cvsShareRate": 0.3333,
        "wordCount": 6,
        "titleDensity": 0,
        "spr": 1,
        "relevancy": null,
        "amazonChoice": true,
        "searchRank": 886145,
        "trends": null,
        "clicks": 684,
        "impressions": 36607
      },
      {
        "marketplace": "US",
        "keyword": "midea air conditioner parts",
        "keywordCn": "美的空调配件",
        "keywordJp": "ミデアエアコン部品",
        "departments": [
          {
            "code": "hi",
            "label": "Tools & Home Improvement"
          }
        ],
        "month": "2026.05",
        "supplement": "N",
        "searches": 1544,
        "purchases": 15,
        "purchaseRate": 0.0098,
        "monopolyClickRate": 0.3382,
        "products": 479,
        "adProducts": 6,
        "supplyDemandRatio": 3.22,
        "avgPrice": 29.99,
        "avgRatings": null,
        "avgRating": 4.0,
        "bidMin": 0.65,
        "bidMax": 1.09,
        "bid": 0.87,
        "cvsShareRate": 0.0,
        "wordCount": 4,
        "titleDensity": 0,
        "spr": 1,
        "relevancy": null,
        "amazonChoice": true,
        "searchRank": 951268,
        "trends": null,
        "clicks": 699,
        "impressions": 37426
      },
      {
        "marketplace": "US",
        "keyword": "midea 12,000 btu duo smart inverter portable air conditioner",
        "keywordCn": "美的12000 BTU双智能变频便携式空调",
        "keywordJp": "Midea 12,000 BTUデュースマートインバーター携帯用エアコンディショナー",
        "departments": [],
        "month": "2026.05",
        "supplement": "N",
        "searches": 1513,
        "purchases": 16,
        "purchaseRate": 0.0109,
        "monopolyClickRate": 0.6381,
        "products": 74,
        "adProducts": 11,
        "supplyDemandRatio": 20.45,
        "avgPrice": 399.99,
        "avgRatings": null,
        "avgRating": 3.5,
        "bidMin": null,
        "bidMax": null,
        "bid": null,
        "cvsShareRate": 0.1429,
        "wordCount": 9,
        "titleDensity": 0,
        "spr": 1,
        "relevancy": null,
        "amazonChoice": true,
        "searchRank": 981457,
        "trends": null,
        "clicks": 611,
        "impressions": 36754
      },
      {
        "marketplace": "US",
        "keyword": "midea air conditioner window kit",
        "keywordCn": "美的空调窗套件",
        "keywordJp": "Mideaエアコンウィンドウキット",
        "departments": [
          {
            "code": "hi",
            "label": "Tools & Home Improvement"
          }
        ],
        "month": "2026.05",
        "supplement": "N",
        "searches": 1511,
        "purchases": 16,
        "purchaseRate": 0.0109,
        "monopolyClickRate": 0.2819,
        "products": 501,
        "adProducts": 5,
        "supplyDemandRatio": 3.02,
        "avgPrice": 24.99,
        "avgRatings": null,
        "avgRating": 4.4,
        "bidMin": null,
        "bidMax": null,
        "bid": null,
        "cvsShareRate": 0.389,
        "wordCount": 5,
        "titleDensity": 0,
        "spr": 1,
        "relevancy": null,
        "amazonChoice": true,
        "searchRank": 928592,
        "trends": null,
        "clicks": 605,
        "impressions": 39830
      },
      {
        "marketplace": "US",
        "keyword": "midea portable air conditioner window kit",
        "keywordCn": "美的便携式空调窗套件",
        "keywordJp": "ミーダ ポータブルエアコン ウィンドウキット",
        "departments": [
          {
            "code": "Tools",
            "label": "Tools & Home Improvement"
          }
        ],
        "month": "2026.05",
        "supplement": "N",
        "searches": 1485,
        "purchases": 10,
        "purchaseRate": 0.0065,
        "monopolyClickRate": 0.4265,
        "products": 700,
        "adProducts": 11,
        "supplyDemandRatio": 2.12,
        "avgPrice": 29.99,
        "avgRatings": null,
        "avgRating": 4.4,
        "bidMin": null,
        "bidMax": null,
        "bid": null,
        "cvsShareRate": 0.5,
        "wordCount": 6,
        "titleDensity": 0,
        "spr": 1,
        "relevancy": null,
        "amazonChoice": true,
        "searchRank": 972171,
        "trends": null,
        "clicks": 608,
        "impressions": 38758
      },
      {
        "marketplace": "US",
        "keyword": "midea air conditioner hose",
        "keywordCn": "美的空调管",
        "keywordJp": "ミデアエアコンホース",
        "departments": [
          {
            "code": "hi",
            "label": "Tools & Home Improvement"
          }
        ],
        "month": "2026.06",
        "supplement": "N",
        "searches": 1374,
        "purchases": 9,
        "purchaseRate": 0.0062,
        "monopolyClickRate": 0.3939,
        "products": 284,
        "adProducts": null,
        "supplyDemandRatio": 4.84,
        "avgPrice": 29.99,
        "avgRatings": null,
        "avgRating": 4.0,
        "bidMin": null,
        "bidMax": null,
        "bid": null,
        "cvsShareRate": 0.3333,
        "wordCount": 4,
        "titleDensity": 0,
        "spr": 1,
        "relevancy": null,
        "amazonChoice": false,
        "searchRank": 1095456,
        "trends": null,
        "clicks": 560,
        "impressions": 36873
      }
    ],
    "terminal": null,
    "hasNextPage": null,
    "guestVisited": false
  }
}
