{
  "code": "OK",
  "message": "成功",
  "data": {
    "guestId": null,
    "pages": 216,
    "page": 1,
    "size": 5,
    "total": 1076,
    "took": 0,
    "url": null,
    "order": {
      "field": "",
      "desc": true
    },
    "items": [
      {
        "author": "LiLi",
        "title": "Defective item",
        "content": "came looking just fine, turns out it didn’t wanna charge and is broken internally so it’s useless. I wasn’t even able to use it and i feel like it charges well but i can’t tell because it came DEFECTIVE.<br>",
        "date": 1782144000000,
        "star": 1,
        "authorLabels": [
          "Verified Purchase"
        ],
        "skus": [
          "Color: Black"
        ],
        "images": null,
        "videos": null,
        "likes": 0,
        "image": false,
        "video": false,
        "verified": true,
        "vine": false,
        "free": false,
        "experience": false
      },
      {
        "author": "Leethal",
        "title": "Nice job making this one.",
        "content": "Slim east to use and on the go!!<br>",
        "date": 1782057600000,
        "star": 5,
        "authorLabels": [
          "Verified Purchase"
        ],
        "skus": [
          "Color: Black"
        ],
        "images": null,
        "videos": null,
        "likes": 0,
        "image": false,
        "video": false,
        "verified": true,
        "vine": false,
        "free": false,
        "experience": false
      },
      {
        "author": "Night Owl",
        "title": "Works Well, It's a Buy!",
        "content": "Great phone charging bank, better than my old anker of the same variety, an upgrade. Cord built in, digital charge read out, and great capacity.<br>",
        "date": 1781971200000,
        "star": 5,
        "authorLabels": [
          "Verified Purchase"
        ],
        "skus": [
          "Color: Black"
        ],
        "images": null,
        "videos": null,
        "likes": 0,
        "image": false,
        "video": false,
        "verified": true,
        "vine": false,
        "free": false,
        "experience": false
      },
      {
        "author": "S.G.",
        "title": "Cord stopped working after just only days.",
        "content": "Have always been a huge proponent of Anker products ever since I had a battery bank years ago that I had to replace because it got lost.  Unfortunately, this product was not what I thought it would be.  Works well and charges fast, however, within days the built in USB-C cable stopped working.  The battery bank still works fine, but now I need to carry around a cord, which defeats the purpose of why I bought this in the first place.<br>",
        "date": 1781971200000,
        "star": 3,
        "authorLabels": [
          "Verified Purchase"
        ],
        "skus": [
          "Color: Black"
        ],
        "images": null,
        "videos": null,
        "likes": 0,
        "image": false,
        "video": false,
        "verified": true,
        "vine": false,
        "free": false,
        "experience": false
      },
      {
        "author": "ERIC",
        "title": "Device was confiscated on a domestic fight within China",
        "content": "I am writing to provide feedback regarding the product. While I am happy with the quality of the device, I encountered a significant issue during travel. The product was confiscated on a domestic flight within China. It appears the device does not comply with local policies for air travel because it lacks the China Compulsory Certification (CCC) marking. I wanted to bring this to your attention so you are aware of these requirements for customers traveling in that region.<br>",
        "date": 1781884800000,
        "star": 1,
        "authorLabels": [
          "Verified Purchase"
        ],
        "skus": [
          "Color: White"
        ],
        "images": null,
        "videos": null,
        "likes": 2,
        "image": false,
        "video": false,
        "verified": true,
        "vine": false,
        "free": false,
        "experience": false
      }
    ],
    "terminal": null,
    "hasNextPage": null,
    "guestVisited": false
  }
}
